Helper function to test for multiple versions — nuts_test_multiple_versions • nuts
…
nuts_test_multiple_versions(group_vars = "indic_ag",
                            multiple_versions = "most_frequent",
                            data_versions = df$versions_data,
                            data = df$data)
#> $data
#> # A tibble: 282 × 8
#>    from_code from_version from_level country.x indic_ag   values country.y
#>    <chr>     <chr>             <dbl> <chr>     <chr>       <dbl> <chr>    
#>  1 AT111     2021                  3 Austria   I07A1_EQ_Y    270 Austria  
#>  2 AT112     2021                  3 Austria   I07A1_EQ_Y    455 Austria  
#>  3 AT113     2021                  3 Austria   I07A1_EQ_Y   1385 Austria  
#>  4 AT121     2021                  3 Austria   I07A1_EQ_Y   6485 Austria  
#>  5 AT122     2021                  3 Austria   I07A1_EQ_Y   2988 Austria  
#>  6 AT123     2021                  3 Austria   I07A1_EQ_Y   1799 Austria  
#>  7 AT124     2021                  3 Austria   I07A1_EQ_Y   5668 Austria  
#>  8 AT125     2021                  3 Austria   I07A1_EQ_Y    848 Austria  
#>  9 AT126     2021                  3 Austria   I07A1_EQ_Y    979 Austria  
#> 10 AT127     2021                  3 Austria   I07A1_EQ_Y    483 Austria  
#> # ℹ 272 more rows
#> # ℹ 1 more variable: overlap_perc <dbl>
…
